<?xml version="1.0" encoding="utf-8"?>
<!-- Generator: Adobe Illustrator 25.0.0, SVG Export Plug-In . SVG Version: 6.00 Build 0)  -->
<svg version="1.1" id="Capa_1" xmlns="http://www.w3.org/2000/svg" xmlns:xlink="http://www.w3.org/1999/xlink" x="0px" y="0px"
	 viewBox="0 0 300 300" style="enable-background:new 0 0 300 300;" xml:space="preserve">
<style type="text/css">
	.st0{fill:#0061BC;}
</style>
<g>
	
		<text transform="matrix(1.1248 0 0 1 338.0371 1394.4762)" style="fill:#FFFFFF; font-family:'Roboto-Regular'; font-size:51.4132px;">Lista</text>
</g>
<g>
	
		<text transform="matrix(1.1248 0 0 1 -84.1768 1394.4767)" style="fill:#FFFFFF; font-family:'Roboto-Regular'; font-size:51.4132px;">Mapa</text>
</g>
<g>
	<path class="st0" d="M42.2,192.5c0.87-5.37,1.45-10.83,2.67-16.11c5.67-24.36,18.71-43.17,38.03-57.15
		c0.35-0.26,0.75-0.44,1.44-0.85c0.19,2.43,0.39,4.62,0.52,6.82c0.26,4.71,0.38,9.43,0.76,14.13c0.16,1.96-0.59,3.15-1.8,4.38
		c-10.07,10.23-17.29,22.34-20.62,36.86c-10.82,47.31,20.23,88.4,59.03,93.58c36,4.8,68.43-18.79,77.62-56.49
		c0.17-0.69,0.38-1.36,0.69-2.44c0.71,1.18,1.26,2,1.73,2.87c3.01,5.54,5.9,11.16,9.06,16.61c1.4,2.43,1.48,4.38,0.2,6.96
		c-14.89,30.16-37.93,48.29-69.55,52.57c-47.9,6.49-92.26-30.44-98.81-81.52c-0.31-2.41-0.65-4.81-0.97-7.22
		C42.2,201.18,42.2,196.84,42.2,192.5z"/>
	<path class="st0" d="M119.38,5c1.25,0.37,2.51,0.73,3.76,1.13c11.29,3.59,18.4,15.49,16.72,27.97
		c-1.69,12.49-11.93,21.97-23.65,21.89c-11.8-0.08-21.82-9.59-23.37-22.15c-1.6-13.01,6.28-25.18,18.22-28.18
		c0.67-0.17,1.32-0.43,1.97-0.65C115.15,5,117.26,5,119.38,5z"/>
	<path class="st0" d="M142.56,105.85c9.54,0,18.78-0.02,28.01,0.01c5.64,0.01,11.28-0.03,16.91,0.17c5.26,0.19,9.34,4.11,10.1,9.36
		c0.81,5.58-2.06,10.91-7.11,12.71c-1.79,0.64-3.8,0.77-5.72,0.78c-12.59,0.09-25.19,0.08-37.78,0.11c-0.95,0-1.89,0-2.78,0
		c0,6.47,0,12.65,0,19.26c1.36,0,2.38,0,3.39,0c18.23,0.04,36.46,0.17,54.69,0.07c6.41-0.03,10.81,2.88,13.95,8.75
		c13.05,24.37,26.19,48.68,39.32,73c1.92,3.56,2.8,7.26,1.9,11.38c-1.26,5.74-5.38,10.21-10.41,11.11
		c-6.08,1.09-11.76-1.32-14.63-6.58c-10.12-18.56-20.19-37.15-30.17-55.8c-1.1-2.04-2.23-2.84-4.49-2.84
		c-24.66,0.02-49.32-0.23-73.98-0.13c-12.02,0.05-20.67-8.06-23.22-16.94c-1.07-3.72-1.33-7.78-1.56-11.71
		c-1.35-23.73-2.7-47.47-3.82-71.22c-0.59-12.41,6.31-22.71,16.7-25.75c14.29-4.18,28,6.61,29.13,22.9
		C141.48,91.45,142.02,98.4,142.56,105.85z"/>
</g>
</svg>
