<?xml version="1.0" encoding="utf-8"?>
<!-- Generator: Adobe Illustrator 25.0.0, SVG Export Plug-In . SVG Version: 6.00 Build 0)  -->
<svg version="1.1" id="Capa_1" xmlns="http://www.w3.org/2000/svg" xmlns:xlink="http://www.w3.org/1999/xlink" x="0px" y="0px"
	 viewBox="0 0 300 300" style="enable-background:new 0 0 300 300;" xml:space="preserve">
<style type="text/css">
	.st0{fill:#0061BC;}
	.st1{fill:#FFFFFF;}
</style>
<g>
	<circle class="st0" cx="150" cy="150" r="145"/>
	<path class="st1" d="M197.55,147.2H152.8v-44.74c0-1.55-1.25-2.8-2.8-2.8s-2.8,1.25-2.8,2.8v44.74h-44.74c-1.55,0-2.8,1.25-2.8,2.8
		s1.25,2.8,2.8,2.8h44.74v44.74c0,1.55,1.25,2.8,2.8,2.8s2.8-1.25,2.8-2.8V152.8h44.74c1.55,0,2.8-1.25,2.8-2.8
		S199.09,147.2,197.55,147.2z"/>
</g>
</svg>
