<?xml version="1.0" encoding="utf-8"?>
<!-- Generator: Adobe Illustrator 25.0.0, SVG Export Plug-In . SVG Version: 6.00 Build 0)  -->
<svg version="1.1" id="Capa_1" xmlns="http://www.w3.org/2000/svg" xmlns:xlink="http://www.w3.org/1999/xlink" x="0px" y="0px"
	 viewBox="0 0 300 300" style="enable-background:new 0 0 300 300;" xml:space="preserve">
<style type="text/css">
	.st0{fill:#F7A51E;}
</style>
<g>
	
		<text transform="matrix(1.1248 0 0 1 338.0371 1394.4762)" style="fill:#FFFFFF; font-family:'Roboto-Regular'; font-size:51.4132px;">Lista</text>
</g>
<g>
	
		<text transform="matrix(1.1248 0 0 1 -84.1768 1394.4767)" style="fill:#FFFFFF; font-family:'Roboto-Regular'; font-size:51.4132px;">Mapa</text>
</g>
<path class="st0" d="M79.11,18.96l0-1.23c0-6.42-4.74-12.05-11.12-12.68c-7.34-0.72-13.58,5.09-13.58,12.29l0,264.91
	c0,6.42,4.74,12.05,11.12,12.68c7.34,0.72,13.58-5.09,13.58-12.29V155.37h153.13c7.38,0,13.36-5.98,13.36-13.36V32.32
	c0-7.38-5.98-13.36-13.36-13.36H79.11z"/>
</svg>
