<?xml version="1.0" encoding="utf-8"?>
<!-- Generator: Adobe Illustrator 25.0.0, SVG Export Plug-In . SVG Version: 6.00 Build 0)  -->
<svg version="1.1" id="Capa_1" xmlns="http://www.w3.org/2000/svg" xmlns:xlink="http://www.w3.org/1999/xlink" x="0px" y="0px"
	 viewBox="0 0 300 300" style="enable-background:new 0 0 300 300;" xml:space="preserve">
<path d="M214.43,81.71c0.64-3.67,1-7.44,1-11.29C215.42,34.35,186.07,5,150,5c-36.07,0-65.42,29.35-65.42,65.42
	c0,3.85,0.35,7.62,1,11.29c-24.13,3.9-42.55,24.82-42.55,50.05v112.53c0,28.01,22.7,50.71,50.71,50.71h112.53
	c28.01,0,50.71-22.7,50.71-50.71V131.76C256.98,106.53,238.55,85.61,214.43,81.71z M155.67,181.08v65.04c0,3.51-2.87,6.38-6.38,6.38
	s-6.38-2.87-6.38-6.38v-65.4c-12.22-3.15-21.25-14.21-21.25-27.41c0-15.65,12.69-28.34,28.34-28.34c15.65,0,28.34,12.69,28.34,28.34
	C178.34,167.02,168.6,178.45,155.67,181.08z M193.82,81.05h-87.64c-0.83-3.41-1.28-6.97-1.28-10.63c0-24.87,20.23-45.1,45.1-45.1
	s45.1,20.23,45.1,45.1C195.1,74.08,194.65,77.64,193.82,81.05z"/>
</svg>
