<?xml version="1.0" encoding="utf-8"?>
<!-- Generator: Adobe Illustrator 25.0.0, SVG Export Plug-In . SVG Version: 6.00 Build 0)  -->
<svg version="1.1" id="Capa_1" xmlns="http://www.w3.org/2000/svg" xmlns:xlink="http://www.w3.org/1999/xlink" x="0px" y="0px"
	 viewBox="0 0 300 300" style="enable-background:new 0 0 300 300;" xml:space="preserve">
<style type="text/css">
	.st0{fill:#0061BC;}
</style>
<g>
	
		<text transform="matrix(1.1248 0 0 1 339.5371 1394.4762)" style="fill:#FFFFFF; font-family:'Roboto-Regular'; font-size:51.4132px;">Lista</text>
</g>
<g>
	
		<text transform="matrix(1.1248 0 0 1 -82.6768 1394.4767)" style="fill:#FFFFFF; font-family:'Roboto-Regular'; font-size:51.4132px;">Mapa</text>
</g>
<g>
	<path class="st0" d="M199.45,224.95c-5.48,0.69-8.88,1.22-12.3,1.54c-29.25,2.72-58.51,5.29-87.75,8.13
		c-12.25,1.19-19.44,8.77-18.79,19.05c0.69,11.05,9.01,17.78,21.61,16.67c45.34-3.97,90.68-8.08,136-12.36
		c13.35-1.26,18.53-6.83,19.87-20.42c1.68-17.03,3.19-34.07,4.73-51.11c2.59-28.61,5.33-57.22,7.61-85.86
		c0.9-11.29-6.07-19.13-16.49-19.95c-9.7-0.76-17.45,5.91-19.12,16.56c-0.4,2.55-0.56,5.13-0.8,7.71
		c-2.53,27.65-5.05,55.29-7.6,82.94c-0.31,3.32-0.77,6.62-1.37,11.73c-4.05-4.05-6.54-6.54-9.03-9.03
		c-45.89-45.89-91.79-91.79-137.69-137.67c-2.28-2.28-4.48-4.7-7.03-6.65c-7.79-5.96-17.08-5.42-23.74,1.15
		c-6.66,6.57-7.35,15.94-1.51,23.71c1.93,2.56,4.34,4.78,6.61,7.06c32.41,32.43,64.84,64.85,97.26,97.28
		C165.89,191.39,181.86,207.36,199.45,224.95z"/>
	<path class="st0" d="M199.45,224.95c-17.59-17.59-33.56-33.56-49.53-49.53C117.5,143,85.07,110.58,52.66,78.15
		c-2.28-2.28-4.69-4.5-6.61-7.06c-5.84-7.76-5.15-17.14,1.51-23.71c6.66-6.57,15.95-7.11,23.74-1.15c2.55,1.95,4.75,4.36,7.03,6.65
		c45.9,45.88,91.79,91.78,137.69,137.67c2.49,2.49,4.98,4.98,9.03,9.03c0.6-5.11,1.06-8.41,1.37-11.73
		c2.55-27.64,5.07-55.29,7.6-82.94c0.24-2.57,0.4-5.16,0.8-7.71c1.67-10.65,9.42-17.32,19.12-16.56
		c10.42,0.82,17.39,8.65,16.49,19.95c-2.28,28.64-5.02,57.24-7.61,85.86c-1.54,17.04-3.05,34.08-4.73,51.11
		c-1.34,13.6-6.52,19.17-19.87,20.42c-45.32,4.27-90.65,8.38-136,12.36c-12.6,1.1-20.92-5.63-21.61-16.67
		c-0.65-10.29,6.54-17.86,18.79-19.05c29.24-2.84,58.5-5.42,87.75-8.13C190.56,226.17,193.96,225.64,199.45,224.95z"/>
</g>
</svg>
