<?xml version="1.0" encoding="utf-8"?>
<!-- Generator: Adobe Illustrator 25.0.0, SVG Export Plug-In . SVG Version: 6.00 Build 0)  -->
<svg version="1.1" id="Capa_1" xmlns="http://www.w3.org/2000/svg" xmlns:xlink="http://www.w3.org/1999/xlink" x="0px" y="0px"
	 viewBox="0 0 300 300" style="enable-background:new 0 0 300 300;" xml:space="preserve">
<style type="text/css">
	.st0{fill:#0061BC;}
</style>
<g>
	
		<text transform="matrix(1.1248 0 0 1 339.5371 1394.4762)" style="fill:#FFFFFF; font-family:'Roboto-Regular'; font-size:51.4132px;">Lista</text>
</g>
<g>
	
		<text transform="matrix(1.1248 0 0 1 -82.6768 1394.4767)" style="fill:#FFFFFF; font-family:'Roboto-Regular'; font-size:51.4132px;">Mapa</text>
</g>
<g>
	<path class="st0" d="M75.05,199.45c-0.69-5.48-1.22-8.88-1.54-12.3c-2.72-29.25-5.29-58.51-8.13-87.75
		c-1.19-12.25-8.77-19.44-19.05-18.79c-11.05,0.69-17.78,9.01-16.67,21.61c3.97,45.34,8.08,90.68,12.36,136
		c1.26,13.35,6.83,18.53,20.42,19.87c17.03,1.68,34.07,3.19,51.11,4.73c28.61,2.59,57.22,5.33,85.86,7.61
		c11.29,0.9,19.13-6.07,19.95-16.49c0.76-9.7-5.91-17.45-16.56-19.12c-2.55-0.4-5.13-0.56-7.71-0.8
		c-27.65-2.53-55.29-5.05-82.94-7.6c-3.32-0.31-6.62-0.77-11.73-1.37c4.05-4.05,6.54-6.54,9.03-9.03
		c45.89-45.89,91.79-91.79,137.67-137.69c2.28-2.28,4.7-4.48,6.65-7.03c5.96-7.79,5.42-17.08-1.15-23.74
		c-6.57-6.66-15.94-7.35-23.71-1.51c-2.56,1.93-4.78,4.34-7.06,6.61c-32.43,32.41-64.85,64.84-97.28,97.26
		C108.61,165.89,92.64,181.86,75.05,199.45z"/>
	<path class="st0" d="M75.05,199.45c17.59-17.59,33.56-33.56,49.53-49.53c32.42-32.42,64.84-64.85,97.28-97.26
		c2.28-2.28,4.5-4.69,7.06-6.61c7.76-5.84,17.14-5.15,23.71,1.51c6.57,6.66,7.11,15.95,1.15,23.74c-1.95,2.55-4.36,4.75-6.65,7.03
		c-45.88,45.9-91.78,91.79-137.67,137.69c-2.49,2.49-4.98,4.98-9.03,9.03c5.11,0.6,8.41,1.06,11.73,1.37
		c27.64,2.55,55.29,5.07,82.94,7.6c2.57,0.24,5.16,0.4,7.71,0.8c10.65,1.67,17.32,9.42,16.56,19.12
		c-0.82,10.42-8.65,17.39-19.95,16.49c-28.64-2.28-57.24-5.02-85.86-7.61c-17.04-1.54-34.08-3.05-51.11-4.73
		c-13.6-1.34-19.17-6.52-20.42-19.87c-4.27-45.32-8.38-90.65-12.36-136c-1.1-12.6,5.63-20.92,16.67-21.61
		c10.29-0.65,17.86,6.54,19.05,18.79c2.84,29.24,5.42,58.5,8.13,87.75C73.83,190.56,74.36,193.96,75.05,199.45z"/>
</g>
</svg>
