<?xml version="1.0" encoding="utf-8"?>
<!-- Generator: Adobe Illustrator 25.0.0, SVG Export Plug-In . SVG Version: 6.00 Build 0)  -->
<svg version="1.1" id="Capa_1" xmlns="http://www.w3.org/2000/svg" xmlns:xlink="http://www.w3.org/1999/xlink" x="0px" y="0px"
	 viewBox="0 0 399 300" style="enable-background:new 0 0 399 300;" xml:space="preserve">
<style type="text/css">
	.st0{fill:#FFFFFF;}
</style>
<g>
	<path class="st0" d="M384,47.93H97.86c-1.89,0-3.43-1.54-3.43-3.43V6.93c0-1.89,1.54-3.43,3.43-3.43H384
		c1.89,0,3.43,1.54,3.43,3.43V44.5C387.43,46.39,385.89,47.93,384,47.93z M97.86,6.5c-0.23,0-0.43,0.2-0.43,0.43V44.5
		c0,0.23,0.2,0.43,0.43,0.43H384c0.23,0,0.43-0.2,0.43-0.43V6.93c0-0.23-0.2-0.43-0.43-0.43H97.86z"/>
	<path class="st0" d="M33.79,47.93c-12.25,0-22.21-9.97-22.21-22.21S21.54,3.5,33.79,3.5S56,13.47,56,25.71S46.03,47.93,33.79,47.93
		z M33.79,6.5c-10.59,0-19.21,8.62-19.21,19.21s8.62,19.21,19.21,19.21S53,36.31,53,25.71S44.38,6.5,33.79,6.5z"/>
	<path class="st0" d="M384,130.79H97.86c-1.89,0-3.43-1.54-3.43-3.43V89.79c0-1.89,1.54-3.43,3.43-3.43H384
		c1.89,0,3.43,1.54,3.43,3.43v37.57C387.43,129.25,385.89,130.79,384,130.79z M97.86,89.36c-0.23,0-0.43,0.2-0.43,0.43v37.57
		c0,0.23,0.2,0.43,0.43,0.43H384c0.23,0,0.43-0.2,0.43-0.43V89.79c0-0.23-0.2-0.43-0.43-0.43H97.86z"/>
	<path class="st0" d="M33.79,130.79c-12.25,0-22.21-9.97-22.21-22.21s9.97-22.21,22.21-22.21S56,96.32,56,108.57
		S46.03,130.79,33.79,130.79z M33.79,89.36c-10.59,0-19.21,8.62-19.21,19.21s8.62,19.21,19.21,19.21S53,119.17,53,108.57
		S44.38,89.36,33.79,89.36z"/>
	<path class="st0" d="M384,213.64H97.86c-1.89,0-3.43-1.54-3.43-3.43v-37.57c0-1.89,1.54-3.43,3.43-3.43H384
		c1.89,0,3.43,1.54,3.43,3.43v37.57C387.43,212.1,385.89,213.64,384,213.64z M97.86,172.21c-0.23,0-0.43,0.2-0.43,0.43v37.57
		c0,0.23,0.2,0.43,0.43,0.43H384c0.23,0,0.43-0.2,0.43-0.43v-37.57c0-0.23-0.2-0.43-0.43-0.43H97.86z"/>
	<path class="st0" d="M33.79,213.64c-12.25,0-22.21-9.96-22.21-22.21s9.97-22.21,22.21-22.21S56,179.18,56,191.43
		S46.03,213.64,33.79,213.64z M33.79,172.21c-10.59,0-19.21,8.62-19.21,19.21s8.62,19.21,19.21,19.21S53,202.02,53,191.43
		S44.38,172.21,33.79,172.21z"/>
	<path class="st0" d="M384,296.5H97.86c-1.89,0-3.43-1.54-3.43-3.43V255.5c0-1.89,1.54-3.43,3.43-3.43H384
		c1.89,0,3.43,1.54,3.43,3.43v37.57C387.43,294.96,385.89,296.5,384,296.5z M97.86,255.07c-0.23,0-0.43,0.2-0.43,0.43v37.57
		c0,0.23,0.2,0.43,0.43,0.43H384c0.23,0,0.43-0.2,0.43-0.43V255.5c0-0.23-0.2-0.43-0.43-0.43H97.86z"/>
	<path class="st0" d="M33.79,296.5c-12.25,0-22.21-9.96-22.21-22.21s9.97-22.21,22.21-22.21S56,262.04,56,274.29
		S46.03,296.5,33.79,296.5z M33.79,255.07c-10.59,0-19.21,8.62-19.21,19.21s8.62,19.21,19.21,19.21S53,284.88,53,274.29
		S44.38,255.07,33.79,255.07z"/>
</g>
<g>
	
		<text transform="matrix(1.1248 0 0 1 387.5371 1394.4762)" class="st0" style="font-family:'Roboto-Regular'; font-size:51.4132px;">Lista</text>
</g>
<g>
	
		<text transform="matrix(1.1248 0 0 1 -34.6768 1394.4767)" class="st0" style="font-family:'Roboto-Regular'; font-size:51.4132px;">Mapa</text>
</g>
</svg>
