<?xml version="1.0" encoding="UTF-8"?>
<svg width="12px" height="16px" viewBox="0 0 12 16" version="1.1" xmlns="http://www.w3.org/2000/svg" xmlns:xlink="http://www.w3.org/1999/xlink">
    <!-- Generator: sketchtool 63.1 (101010) - https://sketch.com -->
    <title>8C0EEB47-AA2A-45BA-89BB-36EC035F90C6</title>
    <desc>Created with sketchtool.</desc>
    <g id="Page-1" stroke="none" stroke-width="1" fill="none" fill-rule="evenodd">
        <g id="propuesta1" transform="translate(-17.000000, -69.000000)" fill="#253776" fill-rule="nonzero">
            <g id="Group-2" transform="translate(17.000000, 66.000000)">
                <g id="map" transform="translate(0.000000, 3.000000)">
                    <path d="M5.77753686,0 C2.59195735,0 0,2.64254135 0,5.89061732 C0,6.73784182 0.170088167,7.54674963 0.505285527,8.29507123 C1.94983035,11.5177665 4.71942464,14.9202554 5.53404898,15.8861962 C5.59508156,15.9584084 5.68406064,16 5.77769747,16 C5.8713343,16 5.96031338,15.9584084 6.02134596,15.8861962 C6.83564908,14.9204192 9.60524337,11.518094 11.05027,8.29507123 C11.385628,7.54674963 11.5555556,6.73784182 11.5555556,5.89061732 C11.5552343,2.64254135 8.96327698,0 5.77753686,0 Z M5.77777778,8.66666667 C4.09121785,8.66666667 2.71895425,7.32082876 2.71895425,5.66674694 C2.71895425,4.01250457 4.09121785,2.66666667 5.77777778,2.66666667 C7.46433771,2.66666667 8.83660131,4.01250457 8.83660131,5.66674694 C8.836765,7.32082876 7.4645014,8.66666667 5.77777778,8.66666667 Z" id="Shape"></path>
                </g>
            </g>
        </g>
    </g>
</svg>