<?xml version="1.0" encoding="utf-8"?>
<!-- Generator: Adobe Illustrator 25.0.0, SVG Export Plug-In . SVG Version: 6.00 Build 0)  -->
<svg version="1.1" id="Capa_1" xmlns="http://www.w3.org/2000/svg" xmlns:xlink="http://www.w3.org/1999/xlink" x="0px" y="0px"
	 viewBox="0 0 300 300" style="enable-background:new 0 0 300 300;" xml:space="preserve">
<style type="text/css">
	.st0{fill:#0061BC;}
</style>
<g>
	
		<text transform="matrix(1.1248 0 0 1 338.0371 1394.4762)" style="fill:#FFFFFF; font-family:'Roboto-Regular'; font-size:51.4132px;">Lista</text>
</g>
<g>
	
		<text transform="matrix(1.1248 0 0 1 -84.1768 1394.4767)" style="fill:#FFFFFF; font-family:'Roboto-Regular'; font-size:51.4132px;">Mapa</text>
</g>
<path class="st0" d="M149.98,295c-0.4,0-0.8,0-1.2,0c-0.75-1.42-1.31-3.01-2.27-4.24c-13.66-17.66-28.06-34.72-40.91-53.03
	c-21.39-30.47-39.11-63.26-47.82-100.68C44.55,80.26,71.54,26.72,121.75,9.77c6.43-2.17,13.19-3.21,19.8-4.77
	c5.62,0,11.23,0,16.85,0c4.88,1.04,9.81,1.87,14.64,3.16c50.88,13.61,81.23,67.79,70.31,124.92
	c-7.31,38.22-23.73,71.89-45.65,102.38C182.82,256.15,165.96,275.21,149.98,295z M149.22,154.51c24.34,0.15,43.86-20.28,44-46.04
	c0.14-26.08-18.79-46.89-42.95-47.21c-23.77-0.31-43.46,20.35-43.62,45.78C106.48,133.37,125.31,154.36,149.22,154.51z"/>
</svg>
