<?xml version="1.0" encoding="utf-8"?>
<!-- Generator: Adobe Illustrator 25.0.0, SVG Export Plug-In . SVG Version: 6.00 Build 0)  -->
<svg version="1.1" id="Capa_1" xmlns="http://www.w3.org/2000/svg" xmlns:xlink="http://www.w3.org/1999/xlink" x="0px" y="0px"
	 viewBox="0 0 300 300" style="enable-background:new 0 0 300 300;" xml:space="preserve">
<style type="text/css">
	.st0{fill:#666666;}
</style>
<path class="st0" d="M191.1,79.58c14.18-14.26,28.04-28.19,41.88-42.15c0.7-0.7,1.18-1.62,2.5-3.44c-4.29-0.29-7.64-0.37-10.94-0.76
	c-7.75-0.92-12.72-6.52-12.73-14.15c-0.01-7.43,5.19-13.69,12.95-13.84c20.49-0.39,40.99-0.16,61.48-0.23
	c4.86-0.02,6.61,2.48,6.59,7.1c-0.07,19.15,0.14,38.3-0.08,57.44c-0.1,9.09-6.19,14.88-14.69,14.87
	c-8.22-0.01-13.96-5.45-14.69-14.08c-0.2-2.36-0.03-4.75-0.03-6.2c-14.01,14.12-28.23,28.46-43.17,43.53
	c20.38,28.47,28.08,62.13,18.85,98.84c-7.11,28.29-23.04,50.84-46.99,67.53c-47.41,33.04-112.47,26.38-152.21-15.47
	c-40.47-42.62-43.76-107.83-7.39-154.02C69.44,57.53,136.35,44.61,191.1,79.58z M208.18,178.94c1.79-44.03-34.53-82.74-79.55-84.79
	c-45.43-2.07-85.14,34.13-86.76,79.1c-1.68,46.52,33.66,85.31,79.45,87.21C168.03,262.4,206.24,226.54,208.18,178.94z"/>
</svg>
