<?xml version="1.0" encoding="utf-8"?>
<!-- Generator: Adobe Illustrator 25.0.0, SVG Export Plug-In . SVG Version: 6.00 Build 0)  -->
<svg version="1.1" id="Capa_1" xmlns="http://www.w3.org/2000/svg" xmlns:xlink="http://www.w3.org/1999/xlink" x="0px" y="0px"
	 viewBox="0 0 300 300" style="enable-background:new 0 0 300 300;" xml:space="preserve">
<style type="text/css">
	.st0{fill:#808080;}
</style>
<g>
	<g>
		
			<ellipse transform="matrix(0.9871 -0.1602 0.1602 0.9871 -13.3576 25.2301)" class="st0" cx="149.81" cy="95.47" rx="41.23" ry="41.23"/>
	</g>
	<g>
		<path class="st0" d="M237.03,123.91h-15.09c-12.15,0-23.36,4.24-32.23,11.31c-5.01,4-3.7,11.91,2.29,14.19
			c20.56,7.82,35.27,27.75,35.27,50.96v34.9c0,0.01,0,0.02,0,0.04c0,1.94,1.49,3.53,3.43,3.53H266c15.95,0,29-13.05,29-29v-27.97
			C295,150,268.91,123.91,237.03,123.91z"/>
	</g>
	<g>
		<path class="st0" d="M152.04,153.5h-7.35c-31.54,0-57.34,25.8-57.34,57.34v29.38c0,15.52,12.7,28.22,28.22,28.22h68.49
			c15.52,0,28.22-12.7,28.22-28.22v-26.47C212.28,180.61,185.17,153.5,152.04,153.5z"/>
	</g>
	<g>
		
			<ellipse transform="matrix(0.3827 -0.9239 0.9239 0.3827 85.263 264.8411)" class="st0" cx="240.81" cy="68.62" rx="37.06" ry="37.06"/>
	</g>
	<g>
		<path class="st0" d="M72.73,200.37c0-23.21,14.71-43.15,35.27-50.96c5.99-2.28,7.3-10.19,2.29-14.19
			c-8.87-7.07-20.07-11.31-32.23-11.31H62.97C31.09,123.91,5,150,5,181.88v27.97c0,15.95,13.05,29,29,29h35.3
			c1.94,0,3.43-1.6,3.43-3.53c0-0.01,0-0.02,0-0.04V200.37z"/>
	</g>
	<g>
		<circle class="st0" cx="59.19" cy="68.62" r="37.06"/>
	</g>
</g>
</svg>
