<?xml version="1.0" encoding="UTF-8"?>
<svg width="13px" height="13px" viewBox="0 0 13 13" version="1.1" xmlns="http://www.w3.org/2000/svg" xmlns:xlink="http://www.w3.org/1999/xlink">
    <!-- Generator: sketchtool 63.1 (101010) - https://sketch.com -->
    <title>EEBD5A94-BEF7-4BCA-A814-28B5AF454539</title>
    <desc>Created with sketchtool.</desc>
    <g id="Page-1" stroke="none" stroke-width="1" fill="none" fill-rule="evenodd">
        <g id="propuesta1" transform="translate(-17.000000, -95.000000)" fill="#253776" fill-rule="nonzero">
            <g id="Group-2" transform="translate(17.000000, 66.000000)">
                <g id="time" transform="translate(0.000000, 29.000000)">
                    <path d="M6.49194426,0.2 C9.96995738,0.2 12.7901738,3.01705902 12.7901738,6.49507213 C12.7901738,9.97308525 9.96998689,12.7901443 6.49194426,12.7901443 C3.01390164,12.7901443 0.2,9.97308525 0.2,6.49507213 C0.2,3.01705902 3.01390164,0.2 6.49194426,0.2 Z M6.49507213,1.45902623 C3.71265574,1.45902623 1.45899672,3.71262623 1.45899672,6.49507213 C1.45899672,9.27751803 3.71265574,11.5311475 6.49507213,11.5311475 C9.27751803,11.5311475 11.5311475,9.27748852 11.5311475,6.49507213 C11.5311475,3.71265574 9.27748852,1.45902623 6.49507213,1.45902623 Z M6.80983607,3.34755082 L6.80983607,6.65246885 L9.64262295,8.33325574 L9.16733443,9.10755082 L5.86557377,7.1246 L5.86557377,3.34755082 L6.80983607,3.34755082 Z" id="Combined-Shape"></path>
                </g>
            </g>
        </g>
    </g>
</svg>