<?xml version="1.0" encoding="utf-8"?>
<!-- Generator: Adobe Illustrator 25.0.0, SVG Export Plug-In . SVG Version: 6.00 Build 0)  -->
<svg version="1.1" id="Capa_1" xmlns="http://www.w3.org/2000/svg" xmlns:xlink="http://www.w3.org/1999/xlink" x="0px" y="0px"
	 viewBox="0 0 387 300" style="enable-background:new 0 0 387 300;" xml:space="preserve">
<style type="text/css">
	.st0{fill:#253776;}
	.st1{fill:#FFFFFF;}
</style>
<g>
	
		<text transform="matrix(1.1248 0 0 1 384.0371 1394.4762)" class="st1" style="font-family:'Roboto-Regular'; font-size:51.4132px;">Lista</text>
</g>
<g>
	
		<text transform="matrix(1.1248 0 0 1 -38.1768 1394.4767)" class="st1" style="font-family:'Roboto-Regular'; font-size:51.4132px;">Mapa</text>
</g>
<g>
	
		<rect id="rect2985_00000075161864803089925080000007310143188398948737_" x="3.97" y="5" class="st0" width="379.07" height="290"/>
	
		<g id="g3006_00000152263855371424448420000003074027085043253396_" transform="matrix(0.89285708,0,0,0.89285714,22.500011,16.097307)">
		<path id="path2987_00000009573013754183757600000017243429569846826407_" class="st1" d="M317.88,150
			c-0.03,74.74-56.63,135.31-126.41,135.27C121.72,285.24,65.2,224.69,65.16,150c-0.03-74.74,56.51-135.36,126.3-135.39
			c69.78-0.03,126.38,60.53,126.41,135.27C317.88,149.92,317.88,149.96,317.88,150z"/>
		<path id="path3007_00000136373188203259430500000014580564037855275398_" class="st0" d="M184.79,275.53
			c-13.05-0.76-24.54-3.27-36.09-7.89c-4.18-1.67-10.97-5.13-14.9-7.6c-2.65-1.66-7.67-5.2-8.34-5.88c-0.25-0.26-0.43-0.56-0.4-0.67
			c0.04-0.14,0.89-0.22,2.76-0.24c40.34-0.55,73.91-3.98,95.47-9.75c5.31-1.42,10.91-3.29,13.69-4.57c1.28-0.59,1.62-0.48,3.59,1.1
			c3.42,2.75,7.84,5.7,11.47,7.67c2.53,1.37,5.92,2.99,7.27,3.47c0.83,0.29,0.86,0.33,0.86,0.95c-0.01,0.72,0.09,0.63-3.47,3.31
			c-6.27,4.72-13.57,8.77-21.67,12c-2.35,0.94-6.58,2.44-7.13,2.53c-0.18,0.03-0.4,0.1-0.49,0.16c-0.28,0.19-4.31,1.34-7.55,2.17
			c-5.3,1.35-13.19,2.58-19.62,3.08C196.94,275.6,187.87,275.71,184.79,275.53L184.79,275.53z M134.79,246.67
			c-6.24-0.26-16.98-1.07-19.89-1.51c-0.56-0.08-0.97-0.38-2.38-1.73c-4.19-4.01-8.92-9.79-12.83-15.66c-1.08-1.63-3.87-6.16-4.31-7
			l-0.43-0.83l0.37,0c0.21,0,1.6,0.16,3.09,0.35c19.91,2.53,42.2,3.5,60.51,2.64c31.39-1.48,58-7.49,80.72-18.23
			c1.13-0.53,2.48-1.2,2.99-1.48c0.52-0.28,1.11-0.51,1.31-0.5c0.24,0,1.12,0.7,2.43,1.94c1.88,1.77,4.45,4.06,5.67,5.04
			c0.27,0.22,0.86,0.69,1.31,1.06c3.61,2.94,9.88,7.02,14.04,9.13c5.42,2.75,11.47,4.96,16.31,5.96l1.44,0.3l-0.1,0.55
			c-0.15,0.8-1.16,2.95-1.86,3.95c-2.33,3.34-5.98,7.56-8.81,10.18c-1.9,1.76-5.5,4.78-6.1,5.12c-0.81,0.46-7.47-2.15-12.72-4.98
			c-4.54-2.44-11.68-7.2-14.99-9.98c-0.45-0.37-0.89-0.65-0.99-0.61c-0.15,0.06-8.71,3.03-11.26,3.9
			c-1.83,0.63-9.59,2.94-12.63,3.77c-16.26,4.42-31.6,7.03-46.98,8C158.34,246.71,142.69,247,134.79,246.67L134.79,246.67z
			 M287.85,218.25c-5.27-1.07-10.57-2.87-16.02-5.43c-1.97-0.93-5.86-3.08-7.46-4.13c-0.6-0.39-1.13-0.71-1.18-0.71
			c-0.05,0-1.29-0.84-2.75-1.87c-4.91-3.45-8.91-6.89-12.83-11.01c-0.63-0.66-1.2-1.2-1.28-1.2c-0.08,0-1.41,0.6-2.97,1.34
			c-1.55,0.74-4.12,1.89-5.7,2.56c-1.58,0.67-3.06,1.3-3.28,1.41c-0.98,0.45-8.7,3.34-11.33,4.24c-7.13,2.44-15.98,4.92-23.73,6.64
			c-27.29,6.04-56.7,7.57-87.53,4.56c-7.29-0.71-21.47-2.68-22.47-3.12c-0.17-0.07-0.75-0.96-1.3-1.97
			c-2.65-4.91-5.15-10.79-6.43-15.15c-0.77-2.6-1.79-6.84-1.67-6.96c0.03-0.04,2.79,0.25,6.12,0.65
			c31.17,3.69,58.46,4.32,83.32,1.94c8.79-0.84,18.34-2.29,27.18-4.11c15.71-3.24,30.88-8.33,43.65-14.64
			c2.61-1.29,8.2-4.27,8.4-4.48c0.09-0.09,0.42-0.16,0.74-0.16c0.51,0,0.74,0.17,1.81,1.35c9.08,9.92,22.35,18.33,37.94,24.04
			c2.57,0.94,7.84,2.63,10.26,3.28c1.17,0.32,2.19,0.63,2.25,0.69c0.15,0.14-0.66,3.44-1.35,5.53c-1.39,4.18-3.38,8.18-6.19,12.46
			c-1.51,2.29-3.47,4.72-3.8,4.7C290.1,218.69,289.02,218.49,287.85,218.25L287.85,218.25z"/>
	</g>
</g>
</svg>
