<?xml version="1.0" encoding="utf-8"?>
<!-- Generator: Adobe Illustrator 25.0.0, SVG Export Plug-In . SVG Version: 6.00 Build 0)  -->
<svg version="1.1" id="Capa_1" xmlns="http://www.w3.org/2000/svg" xmlns:xlink="http://www.w3.org/1999/xlink" x="0px" y="0px"
	 viewBox="0 0 300 300" style="enable-background:new 0 0 300 300;" xml:space="preserve">
<style type="text/css">
	.st0{fill:#808080;}
</style>
<path class="st0" d="M271.74,82.69c-0.26-1.59-1-3.1-2.21-4.29l-46.48-45.64l-20.49-20.12c0,0-0.01-0.01-0.01-0.01l-2.92-2.87
	c-1.16-1.14-2.61-1.85-4.14-2.11C191.89,5.92,187.94,5,183.85,5H78.22c-14.72,0-26.7,11.98-26.7,26.7v4.63
	c-11.17,0.35-20.12,9.49-20.12,20.74V267.3c0,11.48,9.3,20.78,20.78,20.78h169.59c11.03,0,20-8.6,20.69-19.45h5.35
	c14.72,0,26.7-11.98,26.7-26.7V94.49C274.51,90.39,273.54,86.34,271.74,82.69z M198.26,25.02l1.11,1.09l54.75,53.75h-48.83
	c-3.87,0-7.02-3.15-7.02-7.02V25.02z M262.67,241.93c0,8.19-6.67,14.86-14.86,14.86H78.22c-8.19,0-14.86-6.67-14.86-14.86V31.7
	c0-8.19,6.67-14.86,14.86-14.86h105.63c0.87,0,1.73,0.09,2.58,0.23v55.77c0,10.4,8.46,18.86,18.86,18.86h57.12
	c0.18,0.92,0.28,1.86,0.28,2.8V241.93z"/>
</svg>
