<?xml version="1.0" encoding="utf-8"?>
<!-- Generator: Adobe Illustrator 25.0.0, SVG Export Plug-In . SVG Version: 6.00 Build 0)  -->
<svg version="1.1" id="Capa_1" xmlns="http://www.w3.org/2000/svg" xmlns:xlink="http://www.w3.org/1999/xlink" x="0px" y="0px"
	 viewBox="0 0 337 300" style="enable-background:new 0 0 337 300;" xml:space="preserve">
<style type="text/css">
	.st0{fill:#FFFFFF;}
</style>
<g>
	
		<text transform="matrix(1.1248 0 0 1 356.0371 1394.4762)" class="st0" style="font-family:'Roboto-Regular'; font-size:51.4132px;">Lista</text>
</g>
<g>
	
		<text transform="matrix(1.1248 0 0 1 -66.1768 1394.4767)" class="st0" style="font-family:'Roboto-Regular'; font-size:51.4132px;">Mapa</text>
</g>
<g>
	<path class="st0" d="M67.68,129.43c3.86-4.98,6.18-8.15,8.68-11.16c21.4-25.78,42.92-51.46,64.21-77.33
		c8.92-10.84,8.61-22.75-0.21-30.52c-9.47-8.35-21.61-7.07-30.88,3.98C76.12,54.17,42.87,94.05,9.77,134.04
		c-9.75,11.78-9.44,20.45,0.45,32.5c12.38,15.08,24.91,30.05,37.41,45.03c20.99,25.16,41.84,50.45,63.1,75.38
		c8.39,9.83,20.32,10.53,29.39,2.79c8.44-7.21,9.3-18.84,2.06-28.77c-1.73-2.38-3.69-4.59-5.57-6.86
		c-20.25-24.34-40.52-48.67-60.76-73.02c-2.43-2.92-4.72-5.96-8.36-10.56c6.53,0,10.55,0,14.57,0c74.03,0,148.05,0,222.08-0.01
		c3.68,0,7.4,0.17,11.03-0.31c11.09-1.47,18.14-9.4,18.22-20.07c0.07-10.67-6.93-18.79-17.9-20.34c-3.62-0.51-7.35-0.35-11.03-0.36
		c-52.3-0.02-104.59-0.01-156.89-0.01C121.8,129.43,96.05,129.43,67.68,129.43z"/>
	<path class="st0" d="M67.68,129.43c28.37,0,54.13,0,79.88,0c52.3,0,104.59-0.01,156.89,0.01c3.68,0,7.41-0.15,11.03,0.36
		c10.97,1.55,17.98,9.66,17.9,20.34c-0.07,10.67-7.13,18.6-18.22,20.07c-3.63,0.48-7.35,0.31-11.03,0.31
		c-74.03,0.01-148.05,0.01-222.08,0.01c-4.02,0-8.04,0-14.57,0c3.64,4.6,5.93,7.64,8.36,10.56c20.24,24.35,40.5,48.68,60.76,73.02
		c1.88,2.26,3.84,4.48,5.57,6.86c7.24,9.93,6.38,21.57-2.06,28.77c-9.06,7.74-21,7.04-29.39-2.79
		c-21.26-24.93-42.11-50.22-63.1-75.38c-12.5-14.98-25.03-29.95-37.41-45.03c-9.88-12.04-10.2-20.72-0.45-32.5
		c33.1-39.99,66.35-79.87,99.71-119.64c9.27-11.05,21.41-12.33,30.88-3.98c8.82,7.77,9.13,19.68,0.21,30.52
		c-21.29,25.87-42.81,51.55-64.21,77.33C73.85,121.28,71.54,124.45,67.68,129.43z"/>
</g>
</svg>
