<?xml version="1.0" encoding="utf-8"?>
<!-- Generator: Adobe Illustrator 25.0.0, SVG Export Plug-In . SVG Version: 6.00 Build 0)  -->
<svg version="1.1" id="Capa_1" xmlns="http://www.w3.org/2000/svg" xmlns:xlink="http://www.w3.org/1999/xlink" x="0px" y="0px"
	 viewBox="0 0 399 300" style="enable-background:new 0 0 399 300;" xml:space="preserve">
<style type="text/css">
	.st0{fill:#FFFFFF;}
</style>
<g>
	
		<text transform="matrix(1.1248 0 0 1 387.5371 1394.4762)" class="st0" style="font-family:'Roboto-Regular'; font-size:51.4132px;">Lista</text>
</g>
<g>
	
		<text transform="matrix(1.1248 0 0 1 -34.6768 1394.4767)" class="st0" style="font-family:'Roboto-Regular'; font-size:51.4132px;">Mapa</text>
</g>
<path class="st0" d="M380.63,2.67H99.71c-3.79,0-6.87,3.08-6.87,6.87v36.89c0,3.79,3.08,6.87,6.87,6.87h280.92
	c3.79,0,6.87-3.08,6.87-6.87V9.54C387.5,5.75,384.42,2.67,380.63,2.67z"/>
<circle class="st0" cx="36.81" cy="27.98" r="25.31"/>
<path class="st0" d="M380.63,84.02H99.71c-3.79,0-6.87,3.08-6.87,6.87v36.89c0,3.79,3.08,6.87,6.87,6.87h280.92
	c3.79,0,6.87-3.08,6.87-6.87V90.88C387.5,87.1,384.42,84.02,380.63,84.02z"/>
<circle class="st0" cx="36.81" cy="109.33" r="25.31"/>
<path class="st0" d="M380.63,165.36H99.71c-3.79,0-6.87,3.08-6.87,6.87v36.89c0,3.79,3.08,6.87,6.87,6.87h280.92
	c3.79,0,6.87-3.08,6.87-6.87v-36.89C387.5,168.44,384.42,165.36,380.63,165.36z"/>
<path class="st0" d="M36.81,165.36c-13.96,0-25.31,11.35-25.31,25.31c0,13.96,11.35,25.31,25.31,25.31s25.31-11.35,25.31-25.31
	C62.12,176.72,50.76,165.36,36.81,165.36z"/>
<path class="st0" d="M380.63,246.71H99.71c-3.79,0-6.87,3.08-6.87,6.87v36.89c0,3.79,3.08,6.87,6.87,6.87h280.92
	c3.79,0,6.87-3.08,6.87-6.87v-36.89C387.5,249.79,384.42,246.71,380.63,246.71z"/>
<path class="st0" d="M36.81,246.71c-13.96,0-25.31,11.35-25.31,25.31c0,13.96,11.35,25.31,25.31,25.31s25.31-11.35,25.31-25.31
	C62.12,258.06,50.76,246.71,36.81,246.71z"/>
</svg>
