<?xml version="1.0" encoding="utf-8"?>
<!-- Generator: Adobe Illustrator 25.0.0, SVG Export Plug-In . SVG Version: 6.00 Build 0)  -->
<svg version="1.1" id="Capa_1" xmlns="http://www.w3.org/2000/svg" xmlns:xlink="http://www.w3.org/1999/xlink" x="0px" y="0px"
	 viewBox="0 0 300 300" style="enable-background:new 0 0 300 300;" xml:space="preserve">
<style type="text/css">
	.st0{fill:#E32C1D;}
</style>
<g>
	<path class="st0" d="M190.95,95.04c-0.92,54.07-81.36,54.07-82.27,0C109.6,40.96,190.03,40.97,190.95,95.04z"/>
	<path class="st0" d="M236.84,123.42h-15.05c-12.11-1.06-48.96,11.74-29.87,25.45c37.67,13.95,36.45,51.67,35.19,85.68
		c-0.02,1.94,1.48,3.56,3.42,3.56h35.22c32.64-1.56,29.45-33.04,28.93-56.84C294.68,149.44,268.65,123.42,236.84,123.42z"/>
	<path class="st0" d="M178.17,267.62c-29.66-2.27-89.57,12.74-90.68-33.98c-2.52-37.81,1.2-78.28,48.34-80.71
		c37.04-3.43,74.56,5.88,76.31,49.77C212.85,230.65,215.89,265.56,178.17,267.62z"/>
	<path class="st0" d="M277.59,68.25c-0.83,48.6-73.13,48.6-73.95,0C204.47,19.64,276.76,19.65,277.59,68.25z"/>
	<path class="st0" d="M63.16,123.42h15.05c12.11-1.06,48.96,11.74,29.87,25.45c-37.67,13.95-36.45,51.67-35.19,85.68
		c0.02,1.94-1.48,3.56-3.42,3.56H34.25c-32.64-1.56-29.45-33.04-28.93-56.84C5.32,149.44,31.35,123.42,63.16,123.42z"/>
	<path class="st0" d="M22.41,68.25c0.83,48.6,73.13,48.6,73.95,0C95.53,19.64,23.24,19.65,22.41,68.25z"/>
</g>
</svg>
