<?xml version="1.0" encoding="utf-8"?>
<!-- Generator: Adobe Illustrator 25.0.0, SVG Export Plug-In . SVG Version: 6.00 Build 0)  -->
<svg version="1.1" id="Capa_1" xmlns="http://www.w3.org/2000/svg" xmlns:xlink="http://www.w3.org/1999/xlink" x="0px" y="0px"
	 viewBox="0 0 300 300" style="enable-background:new 0 0 300 300;" xml:space="preserve">
<style type="text/css">
	.st0{fill:#999999;}
</style>
<path class="st0" d="M149.68,5C69.6,5.18,4.83,70.23,5,150.32S70.24,295.17,150.32,295S295.17,229.76,295,149.68
	S229.76,4.83,149.68,5z M40.86,68.56c2.36-5.23,7.52-10.45,13.44-16.44c6.86-6.95,12.86-12.14,18.7-14.53
	c2.6-1.06,5.87-0.18,8.14,2.17l32.21,33.4c1.25,1.3,1.04,3.25-0.42,3.81c-9.93,3.79-16.59,9.16-20.51,12.94
	c-3.92,3.78-9.53,10.24-13.68,20.03c-0.61,1.43-2.56,1.58-3.82,0.28l-32.21-33.4C40.43,74.45,39.69,71.13,40.86,68.56z
	 M112.13,224.79l-33.51,32.31c-2.36,2.28-5.68,3.04-8.24,1.88c-5.77-2.6-11.59-8.03-18.22-15.25c-5.72-6.23-10.7-11.64-12.88-16.97
	c-1.07-2.62-0.21-5.91,2.16-8.2l33.51-32.32c1.31-1.26,3.26-1.04,3.82,0.42c3.8,9.96,9.19,16.65,12.98,20.58s10.28,9.56,20.09,13.72
	C113.28,221.57,113.43,223.54,112.13,224.79z M94.64,201.37c-28.36-30.96-26.24-79.05,4.72-107.41
	c30.96-28.36,79.05-26.24,107.41,4.72c28.36,30.96,26.24,79.05-4.72,107.41C171.09,234.45,123,232.34,94.64,201.37z M259.22,230.72
	c-2.6,5.75-8.01,11.56-15.2,18.16c-6.21,5.7-11.6,10.66-16.92,12.84c-2.61,1.07-5.9,0.21-8.18-2.16l-32.21-33.4
	c-1.26-1.3-1.04-3.25,0.42-3.81c9.93-3.79,16.59-9.17,20.51-12.94c3.92-3.78,9.53-10.24,13.68-20.03c0.61-1.43,2.56-1.58,3.82-0.28
	l32.21,33.4C259.61,224.85,260.37,228.16,259.22,230.72z M226.97,113.01c-1.31,1.26-3.26,1.04-3.82-0.42
	c-3.8-9.96-9.2-16.65-12.99-20.58c-3.79-3.93-10.28-9.57-20.09-13.72c-1.44-0.61-1.58-2.57-0.28-3.83l33.51-32.32
	c2.37-2.29,5.7-3.03,8.28-1.87c5.25,2.37,10.48,7.55,16.5,13.48c6.97,6.88,12.19,12.9,14.58,18.76c1.07,2.61,0.19,5.89-2.18,8.17
	L226.97,113.01z"/>
</svg>
