<?xml version="1.0" encoding="utf-8"?>
<!-- Generator: Adobe Illustrator 25.0.0, SVG Export Plug-In . SVG Version: 6.00 Build 0)  -->
<svg version="1.1" id="Capa_1" xmlns="http://www.w3.org/2000/svg" xmlns:xlink="http://www.w3.org/1999/xlink" x="0px" y="0px"
	 viewBox="0 0 300 300" style="enable-background:new 0 0 300 300;" xml:space="preserve">
<style type="text/css">
	.st0{fill:#0061BC;}
</style>
<g>
	<path class="st0" d="M237,154H63c-2.21,0-4-1.79-4-4s1.79-4,4-4h174c2.21,0,4,1.79,4,4S239.21,154,237,154z"/>
	<path class="st0" d="M150,299C67.84,299,1,232.16,1,150C1,67.84,67.84,1,150,1c82.16,0,149,66.84,149,149
		C299,232.16,232.16,299,150,299z M150,9C72.25,9,9,72.25,9,150c0,77.75,63.25,141,141,141c77.75,0,141-63.25,141-141
		C291,72.25,227.75,9,150,9z"/>
</g>
</svg>
